TIPO= L
CODPESSOA=4437
IsTipoDoc=DOC DE LOCA&Ccedil;&Atilde;O
IsImob1=RAPHAEL  IM&Oacute;VEIS

IsImob2=R CRUZ, SANTA, 1992 - CEP:96015-710 - BAIRRO CENTRO - PELOTAS/RS - FONE:3225.1100
IsImob3=93.301.976/0001-85

IsId1=IM&Oacute;VEL     : 00000397                           NRO.DOC:00000397.03.09/2017.N
IsId2=ENDERE&Ccedil;O   : R SANTA TECLA, BARAO DE, 753 - PELOTAS/RS
IsId3=LOCAT&Aacute;RIO  : RICHARD CORREIA SIMOES-040.507.560/05        
IsId4=COMPET&Ecirc;NCIA: 09/2017 (NORMAL)
IsId5=PROPRIET.  : 958-JAIRO DE BRITTO - CPF 322.063.720/53
IsVencto=10/10/2017
IsDetLin1=00001-ALUGUEL                                                       2.750,00
IsDetLin2=00064-IPTU               09/10                                        177,07
IsDetLin3=00121-AGUA                     (CASA)                                 234,41
IsDetLin4=02061-PARC AGUA          02/03                                        111,16
IsDetLin5=00122-DOC                                                               4,00
IsDetLin6=----------------------------------------------------------------------------
IsDetLin7=TOTAL                                                               3.276,64
IsDetLin8=
IsDetLin9=
IsDetLin10=
IsDetLin11=
IsDetLin12=
IsDetLin13=
IsDetLin14=
IsDetLin15=
IsDetLin16=
IsDetLin17=
IsDetLin18=
IsDetLin19=
IsDetLin20=
IsDetLin21=
IsDetLin22=
IsDetLin23=
IsDetLin24=
IsDetLin25=
IsDetLin26=
IsDetLin27=
IsDetLin28=
IsDetLin29=
IsDetLin30=
IsDetLin31=
IsDetLin32=
IsDetLin33=
IsDetLin34=
IsDetLin35=
IsDetLin36=
IsDetLin37=
IsDetLin38=
IsDetLin39=
IsDetLin40=
IsCodBanco=104-0
IsLinDig=
IsLocalPagto=PREF NAS CASAS LOTERICAS ATE O LIMITE
IsDataVenc=10/10/2017
IsNomeCedente=ADMINISTRADORA RAPHAEL LTDA.  CNPJ 93.301.976/0001-85
IsAgeCodCedente=1594/785788-8
IsDataDoc=26/10/2017
IsDataProc=26/10/2017
IsNumeroDoc=00000397.03.09/2017.N
IsNossoNumero=14/000008000034956-2
IsCarteira=RG
IsUsoBanco=
IsAceite=N
IsEspecieDoc=DM
IsMoeda=R$  
IsValorDoc=  3.276,64
IsOutroAcres=
IsDesconto=
IsOutraDed=
IsMoraMulta=
IsValorCobrado=
IsInstru1=PAG&Aacute;VEL NA REDE BANC&Aacute;RIA AT&Eacute; O VENCIMENTO, AP&Oacute;S SOMENTE NA ADMINISTRADORA
IsInstru2=AP&Oacute;S O DIA 20 DO M&Ecirc;S DO VENCIMENTO, SOMENTE NO JUR&Iacute;DICO, ACRESCIDO DE HONOR&Aacute;RIOS
IsInstru3=O PAGAMENTO DESTE DOC N&Atilde;O QUITA D&Eacute;BITOS ANTERIORES. 
IsInstru4=&Eacute; EXPRESSAMENTE PROIBIDA A DEDU&Ccedil;&Atilde;O DE VALORES.
IsInstru5=**AP&Oacute;S O VENCTO, CORRE&Ccedil;&Atilde;O MONET + JUROS:0,066%AD + MULTA DE 10%.
IsInstru6=
IsInstru7=
IsInstru8=
IsInstru9=
IsSacado1=RICHARD CORREIA SIMOES                       Imov.:397(040.507.560-05)
IsSacado2=R SANTA TECLA, BARAO DE, 753
IsSacado3=96010-140  CENTRO - PELOTAS-RS
IsDebConta= DOC Quitado 
