TIPO= C
CODPESSOA=222
IsTipoDoc=DOC DE CONDOM&Iacute;NIO
IsImob1=RAPHAEL  IM&Oacute;VEIS

IsImob2=R CRUZ, SANTA, 1992 - CEP:96015-710 - BAIRRO CENTRO - PELOTAS/RS - FONE:3225.1100
IsImob3=93.301.976/0001-85

IsId1=CONDOM&Iacute;NIO : 00013-XV CONJUNTOS RESIDENCIAIS    NRO.DOC:00013.AP 305.10/2017.N
IsId2=ENDERE&Ccedil;O   : R QUINZE DE NOVEMBRO, 510 - PELOTAS/RS
IsId3=COND&Ocirc;MINO  : JACQUES GEORGES HALLAL-005.946.100/44        
IsId4=ECONOMIA   : AP 305
IsId5=COMPET&Ecirc;NCIA: 11/2017 (NORMAL)
IsVencto=05/11/2017
IsDetLin1=00120-CONDOMINIO                                                      138,00
IsDetLin2=00121-AGUA                                                             67,10
IsDetLin3=00122-DOC                                                               3,00
IsDetLin4=----------------------------------------------------------------------------
IsDetLin5=TOTAL                                                                 208,10
IsDetLin6=
IsDetLin7=
IsDetLin8=
IsDetLin9=
IsDetLin10=
IsDetLin11=
IsDetLin12=
IsDetLin13=
IsDetLin14=
IsDetLin15=
IsDetLin16=
IsDetLin17=
IsDetLin18=
IsDetLin19=
IsDetLin20=
IsDetLin21=
IsDetLin22=
IsDetLin23=
IsDetLin24=
IsDetLin25=
IsDetLin26=
IsDetLin27=
IsDetLin28=
IsDetLin29=
IsDetLin30=
IsDetLin31=
IsDetLin32=
IsDetLin33=
IsDetLin34=
IsDetLin35=
IsDetLin36=
IsDetLin37=
IsDetLin38=
IsDetLin39=
IsDetLin40=
IsCodBanco=104-0
IsLinDig=10490.28044 61000.100844 10003.552014 2 73340000020810
IsLocalPagto=PREFERENCIALMENTE NAS CASAS LOTERICAS ATE O VALOR LIMITE
IsDataVenc=05/11/2017
IsNomeCedente=RAPHAEL IMOVEIS / CONDOMINIOS 93.301.976/0001-85
IsAgeCodCedente=1594/028046-1
IsDataDoc=26/10/2017
IsDataProc=26/10/2017
IsNumeroDoc=00013.AP 305.10/2017.N
IsNossoNumero=14/000008100035520-0
IsCarteira=RG
IsUsoBanco=
IsAceite=N
IsEspecieDoc=DM
IsMoeda=R$  
IsValorDoc=   208,10
IsOutroAcres=
IsDesconto=
IsOutraDed=
IsMoraMulta=
IsValorCobrado=
IsInstru1=PAG&Aacute;VEL NA REDE BANC&Aacute;RIA AT&Eacute; O VENCIMENTO, AP&Oacute;S O VENCIMENTO, SOMENTE NA        
IsInstru2=ADMINISTRADORA. 
IsInstru3=O PAGAMENTO DESTE DOC N&Atilde;O QUITA D&Eacute;BITOS ANTERIORES.
IsInstru4=&Eacute; EXPRESSAMENTE PROIBIDA A DEDU&Ccedil;&Atilde;O DE VALORES.
IsInstru5=
IsInstru6=
IsInstru7=
IsInstru8=
IsInstru9=
IsSacado1=JACQUES GEORGES HALLAL                       Econ.:00013.AP 305(005.946.100-44)
IsSacado2=R ANDRADE NEVES, 1587 - LOJA
IsSacado3=96020-080  CENTRO - PELOTAS-RS
IsCodBarra1=10492733400000208100280461000100841000355201
IsCodBloco=UNC
