TIPO= L
CODPESSOA=4192
IsTipoDoc=DOC DE LOCA&Ccedil;&Atilde;O
IsImob1=COBRAN&Ccedil;A ADMINISTRATIVA

IsImob2=R SANTA CRUZ, 1992 - FONE: 3225.1100
IsImob3=00.000.000/0000-00

IsId1=IM&Oacute;VEL     : 00003636-VILLAGE CENTER I SETOR 1  NRO.DOC:00003636.01.09/2017.N
IsId2=ENDERE&Ccedil;O   : AV JK DE OLIVEIRA, 2200 - AP 202-04B - PELOTAS/RS
IsId3=LOCAT&Aacute;RIO  : SABRINA SILVA GONCALVES-037.803.360/30       
IsId4=COMPET&Ecirc;NCIA: 09/2017 (NORMAL)
IsId5=PROPRIET.  : 3882-CRISTIANE HOLEVA BALCZAREK - CPF 008.180.950/67
IsVencto=16/10/2017
IsDetLin1=00001-ALUGUEL                  (8 dias)                               160,00
IsDetLin2=00120-CONDOMINIO               (8 dias)                                70,49
IsDetLin3=02021-HONORARIOS ADV                                                   25,73
IsDetLin4=00122-DOC                                                               4,00
IsDetLin5=----------------------------------------------------------------------------
IsDetLin6=TOTAL                                                                 260,22
IsDetLin7=
IsDetLin8=
IsDetLin9=
IsDetLin10=
IsDetLin11=
IsDetLin12=
IsDetLin13=
IsDetLin14=
IsDetLin15=
IsDetLin16=
IsDetLin17=
IsDetLin18=
IsDetLin19=
IsDetLin20=
IsDetLin21=
IsDetLin22=
IsDetLin23=
IsDetLin24=
IsDetLin25=
IsDetLin26=
IsDetLin27=
IsDetLin28=
IsDetLin29=
IsDetLin30=
IsDetLin31=
IsDetLin32=
IsDetLin33=
IsDetLin34=
IsDetLin35=
IsDetLin36=
IsDetLin37=
IsDetLin38=
IsDetLin39=
IsDetLin40=
IsCodBanco=104-0
IsLinDig=
IsLocalPagto=PREF NAS CASAS LOTERICAS ATE O LIMITE
IsDataVenc=16/10/2017
IsNomeCedente=ADMINISTRADORA RAPHAEL LTDA.  CNPJ 93.301.976/0001-85 / COBRAN&Ccedil;A ADMINISTRATIVA
IsAgeCodCedente=1594/785788-8
IsDataDoc=26/10/2017
IsDataProc=26/10/2017
IsNumeroDoc=00003636.01.09/2017.N
IsNossoNumero=14/000008100035289-8
IsCarteira=RG
IsUsoBanco=
IsAceite=N
IsEspecieDoc=DM
IsMoeda=R$  
IsValorDoc=   260,22
IsOutroAcres=
IsDesconto=
IsOutraDed=
IsMoraMulta=
IsValorCobrado=
IsInstru1=PAG&Aacute;VEL NA REDE BANC&Aacute;RIA AT&Eacute; O VENCIMENTO, AP&Oacute;S SOMENTE NA ADMINISTRADORA
IsInstru2=AP&Oacute;S O DIA 20 DO M&Ecirc;S DO VENCIMENTO, SOMENTE NO JUR&Iacute;DICO, ACRESCIDO DE HONOR&Aacute;RIOS
IsInstru3=O PAGAMENTO DESTE DOC N&Atilde;O QUITA D&Eacute;BITOS ANTERIORES. 
IsInstru4=&Eacute; EXPRESSAMENTE PROIBIDA A DEDU&Ccedil;&Atilde;O DE VALORES.
IsInstru5=**AP&Oacute;S O VENCTO, CORRE&Ccedil;&Atilde;O MONET + JUROS:0,066%AD + MULTA DE 10%.
IsInstru6=
IsInstru7=
IsInstru8=
IsInstru9=
IsSacado1=SABRINA SILVA GONCALVES                      Imov.:3636(037.803.360-30)
IsSacado2=AV JK DE OLIVEIRA, 2200 - 202 - 4B
IsSacado3=96080-000  CENTRO - PELOTAS-RS
IsDebConta= DOC Quitado 
