TIPO= L
CODPESSOA=3803
IsTipoDoc=DOC DE LOCA&Ccedil;&Atilde;O
IsImob1=RAPHAEL  IM&Oacute;VEIS

IsImob2=R CRUZ, SANTA, 1992 - CEP:96015-710 - BAIRRO CENTRO - PELOTAS/RS - FONE:3225.1100
IsImob3=93.301.976/0001-85

IsId1=IM&Oacute;VEL     : 00003539                           NRO.DOC:00003539.01.09/2017.N
IsId2=ENDERE&Ccedil;O   : R SETE DE ABRIL, 157 - CASA B - PELOTAS/RS
IsId3=LOCAT&Aacute;RIO  : AIRTON FREITAS MONTEIRO E OUTR-359.491.980/34
IsId4=COMPET&Ecirc;NCIA: 09/2017 (NORMAL)
IsId5=PROPRIET.  : 1918-RENATO ALVES BLANCO - CPF 724.291.430/20
IsVencto=10/10/2017
IsDetLin1=00001-ALUGUEL                                                         617,38
IsDetLin2=00122-DOC                                                               4,00
IsDetLin3=----------------------------------------------------------------------------
IsDetLin4=TOTAL                                                                 621,38
IsDetLin5=VLR.MULTA+JUROS+CORRE&Ccedil;&Atilde;O                                               69,41
IsDetLin6=TOTAL C/MULTA+JUROS+CORRE&Ccedil;&Atilde;O                                          690,79
IsDetLin7=
IsDetLin8=
IsDetLin9=
IsDetLin10=
IsDetLin11=
IsDetLin12=
IsDetLin13=
IsDetLin14=
IsDetLin15=
IsDetLin16=
IsDetLin17=
IsDetLin18=
IsDetLin19=
IsDetLin20=
IsDetLin21=
IsDetLin22=
IsDetLin23=
IsDetLin24=
IsDetLin25=
IsDetLin26=
IsDetLin27=
IsDetLin28=
IsDetLin29=
IsDetLin30=
IsDetLin31=
IsDetLin32=
IsDetLin33=
IsDetLin34=
IsDetLin35=
IsDetLin36=
IsDetLin37=
IsDetLin38=
IsDetLin39=
IsDetLin40=
IsCodBanco=104-0
IsLinDig=10497.85783 88000.100847 00003.523586 4 73250000069079
IsLocalPagto=PREF NAS CASAS LOTERICAS ATE O LIMITE
IsDataVenc=10/10/2017
IsNomeCedente=ADMINISTRADORA RAPHAEL LTDA.  CNPJ 93.301.976/0001-85
IsAgeCodCedente=1594/785788-8
IsDataDoc=26/10/2017
IsDataProc=26/10/2017
IsNumeroDoc=00003539.01.09/2017.N
IsNossoNumero=14/000008000035235-0
IsCarteira=RG
IsUsoBanco=
IsAceite=N
IsEspecieDoc=DM
IsMoeda=R$  
IsValorDoc=   690,79
IsOutroAcres=
IsDesconto=
IsOutraDed=
IsMoraMulta=
IsValorCobrado=
IsInstru1=PAG&Aacute;VEL NA REDE BANC&Aacute;RIA AT&Eacute; 27/10/2017.
IsInstru2=O PAGAMENTO DESTE DOC N&Atilde;O QUITA D&Eacute;BITOS ANTERIORES. 
IsInstru3=&Eacute; EXPRESSAMENTE PROIBIDA A DEDU&Ccedil;&Atilde;O DE VALORES.
IsInstru4=
IsInstru5=
IsInstru6=
IsInstru7=
IsInstru8=
IsInstru9=
IsSacado1=AIRTON FREITAS MONTEIRO E OUTRA              Imov.:3539(359.491.980-34)
IsSacado2=R SETE DE ABRIL, 157 - CASA A
IsSacado3=96025-330  FRAGATA - PELOTAS-RS
IsCodBarra1=10494732500000690797857888000100840000352358
