TIPO= L
CODPESSOA=5246
IsTipoDoc=DOC DE LOCA&Ccedil;&Atilde;O
IsImob1=RAPHAEL  IM&Oacute;VEIS

IsImob2=R CRUZ, SANTA, 1992 - CEP:96015-710 - BAIRRO CENTRO - PELOTAS/RS - FONE:3225.1100
IsImob3=93.301.976/0001-85

IsId1=IM&Oacute;VEL     : 00001541-CLERA                     NRO.DOC:00001541.02.10/2017.N
IsId2=ENDERE&Ccedil;O   : R SANTA TECLA, BARAO DE, 401 - LJ A - PELOTAS/RS
IsId3=LOCAT&Aacute;RIO  : DANIELE ACOSTA DA SILVA-011.271.080/85       
IsId4=COMPET&Ecirc;NCIA: 10/2017 (NORMAL)
IsId5=PROPRIET.  : 1617-NARA DIOLINDA PORTO NUNES - CPF 571.653.430/91
IsVencto=10/11/2017
IsDetLin1=00001-ALUGUEL                                                       1.600,00
IsDetLin2=00120-CONDOMINIO                                                      178,54
IsDetLin3=00122-DOC                                                               4,00
IsDetLin4=----------------------------------------------------------------------------
IsDetLin5=TOTAL                                                               1.782,54
IsDetLin6=
IsDetLin7=
IsDetLin8=
IsDetLin9=
IsDetLin10=
IsDetLin11=
IsDetLin12=
IsDetLin13=
IsDetLin14=
IsDetLin15=
IsDetLin16=
IsDetLin17=
IsDetLin18=
IsDetLin19=
IsDetLin20=
IsDetLin21=
IsDetLin22=
IsDetLin23=
IsDetLin24=
IsDetLin25=
IsDetLin26=
IsDetLin27=
IsDetLin28=
IsDetLin29=
IsDetLin30=
IsDetLin31=
IsDetLin32=
IsDetLin33=
IsDetLin34=
IsDetLin35=
IsDetLin36=
IsDetLin37=
IsDetLin38=
IsDetLin39=
IsDetLin40=
IsCodBanco=104-0
IsLinDig=10497.85783 88000.100847 00003.612256 1 73390000178254
IsLocalPagto=PREF NAS CASAS LOTERICAS ATE O LIMITE
IsDataVenc=10/11/2017
IsNomeCedente=ADMINISTRADORA RAPHAEL LTDA.  CNPJ 93.301.976/0001-85
IsAgeCodCedente=1594/785788-8
IsDataDoc=26/10/2017
IsDataProc=26/10/2017
IsNumeroDoc=00001541.02.10/2017.N
IsNossoNumero=14/000008000036122-8
IsCarteira=RG
IsUsoBanco=
IsAceite=N
IsEspecieDoc=DM
IsMoeda=R$  
IsValorDoc=  1.782,54
IsOutroAcres=
IsDesconto=
IsOutraDed=
IsMoraMulta=
IsValorCobrado=
IsInstru1=PAG&Aacute;VEL NA REDE BANC&Aacute;RIA AT&Eacute; O VENCIMENTO, AP&Oacute;S SOMENTE NA ADMINISTRADORA
IsInstru2=AP&Oacute;S O DIA 20 DO M&Ecirc;S DO VENCIMENTO, SOMENTE NO JUR&Iacute;DICO, ACRESCIDO DE HONOR&Aacute;RIOS
IsInstru3=O PAGAMENTO DESTE DOC N&Atilde;O QUITA D&Eacute;BITOS ANTERIORES. 
IsInstru4=&Eacute; EXPRESSAMENTE PROIBIDA A DEDU&Ccedil;&Atilde;O DE VALORES.
IsInstru5=**AP&Oacute;S O VENCTO, CORRE&Ccedil;&Atilde;O MONET + JUROS:0,066%AD + MULTA DE 10%.
IsInstru6=
IsInstru7=
IsInstru8=
IsInstru9=
IsSacado1=DANIELE ACOSTA DA SILVA                      Imov.:1541(011.271.080-85)
IsSacado2=R SANTA TECLA, BARAO DE, 401 - LOJA A
IsSacado3=96010-140  CENTRO - PELOTAS-RS
IsCodBarra1=10491733900001782547857888000100840000361225
