TIPO= L
CODPESSOA=4205
IsTipoDoc=DOC DE LOCA&Ccedil;&Atilde;O
IsImob1=RAPHAEL  IM&Oacute;VEIS

IsImob2=R CRUZ, SANTA, 1992 - CEP:96015-710 - BAIRRO CENTRO - PELOTAS/RS - FONE:3225.1100
IsImob3=93.301.976/0001-85

IsId1=IM&Oacute;VEL     : 00001653                           NRO.DOC:00001653.01.09/2017.N
IsId2=ENDERE&Ccedil;O   : R DEMETRIO RIBEIRO, 520 - CASA 01 - PELOTAS/RS
IsId3=LOCAT&Aacute;RIO  : SABRINA VEGA AIRES-056.210.509/32            
IsId4=COMPET&Ecirc;NCIA: 09/2017 (NORMAL)
IsId5=PROPRIET.  : 4238-JUARES DE OLIVEIRA DUTRA - CPF 288.937.860/87
IsVencto=10/10/2017
IsDetLin1=00001-ALUGUEL                                                         558,57
IsDetLin2=00064-IPTU               09/10                                         24,50
IsDetLin3=00098-AGUA-REPASSE       09/12                                         18,96
IsDetLin4=00122-DOC                                                               4,00
IsDetLin5=----------------------------------------------------------------------------
IsDetLin6=TOTAL                                                                 606,03
IsDetLin7=VLR.MULTA+JUROS+CORRE&Ccedil;&Atilde;O                                               67,68
IsDetLin8=TOTAL C/MULTA+JUROS+CORRE&Ccedil;&Atilde;O                                          673,71
IsDetLin9=
IsDetLin10=
IsDetLin11=
IsDetLin12=
IsDetLin13=
IsDetLin14=
IsDetLin15=
IsDetLin16=
IsDetLin17=
IsDetLin18=
IsDetLin19=
IsDetLin20=
IsDetLin21=
IsDetLin22=
IsDetLin23=
IsDetLin24=
IsDetLin25=
IsDetLin26=
IsDetLin27=
IsDetLin28=
IsDetLin29=
IsDetLin30=
IsDetLin31=
IsDetLin32=
IsDetLin33=
IsDetLin34=
IsDetLin35=
IsDetLin36=
IsDetLin37=
IsDetLin38=
IsDetLin39=
IsDetLin40=
IsCodBanco=104-0
IsLinDig=10497.85783 88000.100847 00003.519634 2 73250000067371
IsLocalPagto=PREF NAS CASAS LOTERICAS ATE O LIMITE
IsDataVenc=10/10/2017
IsNomeCedente=ADMINISTRADORA RAPHAEL LTDA.  CNPJ 93.301.976/0001-85
IsAgeCodCedente=1594/785788-8
IsDataDoc=26/10/2017
IsDataProc=26/10/2017
IsNumeroDoc=00001653.01.09/2017.N
IsNossoNumero=14/000008000035196-6
IsCarteira=RG
IsUsoBanco=
IsAceite=N
IsEspecieDoc=DM
IsMoeda=R$  
IsValorDoc=   673,71
IsOutroAcres=
IsDesconto=
IsOutraDed=
IsMoraMulta=
IsValorCobrado=
IsInstru1=PAG&Aacute;VEL NA REDE BANC&Aacute;RIA AT&Eacute; 27/10/2017.
IsInstru2=O PAGAMENTO DESTE DOC N&Atilde;O QUITA D&Eacute;BITOS ANTERIORES. 
IsInstru3=&Eacute; EXPRESSAMENTE PROIBIDA A DEDU&Ccedil;&Atilde;O DE VALORES.
IsInstru4=
IsInstru5=
IsInstru6=
IsInstru7=
IsInstru8=
IsInstru9=
IsSacado1=SABRINA VEGA AIRES                           Imov.:1653(056.210.509-32)
IsSacado2=R DEMETRIO RIBEIRO, 520 - CASA 01
IsSacado3=96045-490  FRAGATA - PELOTAS-RS
IsCodBarra1=10492732500000673717857888000100840000351963
