TIPO= L
CODPESSOA=3831
IsTipoDoc=DOC DE LOCA&Ccedil;&Atilde;O
IsImob1=RAPHAEL  IM&Oacute;VEIS

IsImob2=R CRUZ, SANTA, 1992 - CEP:96015-710 - BAIRRO CENTRO - PELOTAS/RS - FONE:3225.1100
IsImob3=93.301.976/0001-85

IsId1=IM&Oacute;VEL     : 00003564-VEREDAS                   NRO.DOC:00003564.01.10/2017.N
IsId2=ENDERE&Ccedil;O   : AV ADOLFO FETTER, 3551 - CASA A 24 - PELOTAS/RS
IsId3=LOCAT&Aacute;RIO  : DANIEL DA SILVA NUNES-957.252.880/72         
IsId4=COMPET&Ecirc;NCIA: 10/2017 (NORMAL)
IsId5=PROPRIET.  : 1887-RAPHAEL RIBEIRO MORALES - CPF 010.669.830/38
IsVencto=05/11/2017
IsDetLin1=00001-ALUGUEL                                                       3.355,52
IsDetLin2=00064-IPTU               10/10                                        193,44
IsDetLin3=00120-CONDOMINIO                                                      456,85
IsDetLin4=00121-AGUA                                                             31,52
IsDetLin5=00122-DOC                                                               4,00
IsDetLin6=----------------------------------------------------------------------------
IsDetLin7=TOTAL                                                               4.041,33
IsDetLin8=
IsDetLin9=
IsDetLin10=
IsDetLin11=
IsDetLin12=
IsDetLin13=
IsDetLin14=
IsDetLin15=
IsDetLin16=
IsDetLin17=
IsDetLin18=
IsDetLin19=
IsDetLin20=
IsDetLin21=
IsDetLin22=
IsDetLin23=
IsDetLin24=
IsDetLin25=
IsDetLin26=
IsDetLin27=
IsDetLin28=
IsDetLin29=
IsDetLin30=
IsDetLin31=
IsDetLin32=
IsDetLin33=
IsDetLin34=
IsDetLin35=
IsDetLin36=
IsDetLin37=
IsDetLin38=
IsDetLin39=
IsDetLin40=
IsCodBanco=104-0
IsLinDig=10497.85783 88000.100847 00003.561750 5 73340000404133
IsLocalPagto=PREF NAS CASAS LOTERICAS ATE O LIMITE
IsDataVenc=05/11/2017
IsNomeCedente=ADMINISTRADORA RAPHAEL LTDA.  CNPJ 93.301.976/0001-85
IsAgeCodCedente=1594/785788-8
IsDataDoc=26/10/2017
IsDataProc=26/10/2017
IsNumeroDoc=00003564.01.10/2017.N
IsNossoNumero=14/000008000035617-8
IsCarteira=RG
IsUsoBanco=
IsAceite=N
IsEspecieDoc=DM
IsMoeda=R$  
IsValorDoc=  4.041,33
IsOutroAcres=
IsDesconto=
IsOutraDed=
IsMoraMulta=
IsValorCobrado=
IsInstru1=PAG&Aacute;VEL NA REDE BANC&Aacute;RIA AT&Eacute; O VENCIMENTO, AP&Oacute;S SOMENTE NA ADMINISTRADORA
IsInstru2=AP&Oacute;S O DIA 20 DO M&Ecirc;S DO VENCIMENTO, SOMENTE NO JUR&Iacute;DICO, ACRESCIDO DE HONOR&Aacute;RIOS
IsInstru3=O PAGAMENTO DESTE DOC N&Atilde;O QUITA D&Eacute;BITOS ANTERIORES. 
IsInstru4=&Eacute; EXPRESSAMENTE PROIBIDA A DEDU&Ccedil;&Atilde;O DE VALORES.
IsInstru5=**AP&Oacute;S O VENCTO, CORRE&Ccedil;&Atilde;O MONET + JUROS:0,066%AD + MULTA DE 10%.
IsInstru6=
IsInstru7=
IsInstru8=
IsInstru9=
IsSacado1=DANIEL DA SILVA NUNES                        Imov.:3564(957.252.880-72)
IsSacado2=R SANTA CRUZ, 1740 - 1307
IsSacado3=96015-710  CENTRO - PELOTAS-RS
IsCodBarra1=10495733400004041337857888000100840000356175
