TIPO= L
CODPESSOA=480
IsTipoDoc=DOC DE LOCA&Ccedil;&Atilde;O
IsImob1=RAPHAEL  IM&Oacute;VEIS

IsImob2=R CRUZ, SANTA, 1992 - CEP:96015-710 - BAIRRO CENTRO - PELOTAS/RS - FONE:3225.1100
IsImob3=93.301.976/0001-85

IsId1=IM&Oacute;VEL     : 00000163-VILLAGE CENTER            NRO.DOC:00000163.01.09/2017.N
IsId2=ENDERE&Ccedil;O   : AV JK DE OLIVEIRA, 2000 - AP 107 T - PELOTAS/RS
IsId3=LOCAT&Aacute;RIO  : MARCIA MARIA GULARTE FARIAS-572.005.050/72   
IsId4=COMPET&Ecirc;NCIA: 09/2017 (NORMAL)
IsId5=PROPRIET.  : 350-DILERMANDO SOARES OLIVEIRA - CPF 523.586.900/15
IsVencto=05/10/2017
IsDetLin1=00001-ALUGUEL                                                         648,34
IsDetLin2=00120-CONDOMINIO                                                      199,75
IsDetLin3=00122-DOC                                                               4,00
IsDetLin4=----------------------------------------------------------------------------
IsDetLin5=TOTAL                                                                 852,09
IsDetLin6=
IsDetLin7=
IsDetLin8=
IsDetLin9=
IsDetLin10=
IsDetLin11=
IsDetLin12=
IsDetLin13=
IsDetLin14=
IsDetLin15=
IsDetLin16=
IsDetLin17=
IsDetLin18=
IsDetLin19=
IsDetLin20=
IsDetLin21=
IsDetLin22=
IsDetLin23=
IsDetLin24=
IsDetLin25=
IsDetLin26=
IsDetLin27=
IsDetLin28=
IsDetLin29=
IsDetLin30=
IsDetLin31=
IsDetLin32=
IsDetLin33=
IsDetLin34=
IsDetLin35=
IsDetLin36=
IsDetLin37=
IsDetLin38=
IsDetLin39=
IsDetLin40=
IsCodBanco=104-0
IsLinDig=
IsLocalPagto=PREF NAS CASAS LOTERICAS ATE O LIMITE
IsDataVenc=05/10/2017
IsNomeCedente=ADMINISTRADORA RAPHAEL LTDA.  CNPJ 93.301.976/0001-85
IsAgeCodCedente=1594/785788-8
IsDataDoc=26/10/2017
IsDataProc=26/10/2017
IsNumeroDoc=00000163.01.09/2017.N
IsNossoNumero=14/000008000034686-5
IsCarteira=RG
IsUsoBanco=
IsAceite=N
IsEspecieDoc=DM
IsMoeda=R$  
IsValorDoc=   852,09
IsOutroAcres=
IsDesconto=
IsOutraDed=
IsMoraMulta=
IsValorCobrado=
IsInstru1=PAG&Aacute;VEL NA REDE BANC&Aacute;RIA AT&Eacute; O VENCIMENTO, AP&Oacute;S SOMENTE NA ADMINISTRADORA
IsInstru2=AP&Oacute;S O DIA 20 DO M&Ecirc;S DO VENCIMENTO, SOMENTE NO JUR&Iacute;DICO, ACRESCIDO DE HONOR&Aacute;RIOS
IsInstru3=O PAGAMENTO DESTE DOC N&Atilde;O QUITA D&Eacute;BITOS ANTERIORES. 
IsInstru4=&Eacute; EXPRESSAMENTE PROIBIDA A DEDU&Ccedil;&Atilde;O DE VALORES.
IsInstru5=**AP&Oacute;S O VENCTO, CORRE&Ccedil;&Atilde;O MONET + JUROS:0,066%AD + MULTA DE 10%.
IsInstru6=
IsInstru7=
IsInstru8=
IsInstru9=
IsSacado1=MARCIA MARIA GULARTE FARIAS                  Imov.:163(572.005.050-72)
IsSacado2=AV JK DE OLIVEIRA, 2000 - 107 T
IsSacado3=96080-000  AREAL - PELOTAS-RS
IsDebConta= DOC Quitado 
