TIPO= C
CODPESSOA=4084
IsTipoDoc=DOC DE CONDOM&Iacute;NIO
IsImob1=RAPHAEL  IM&Oacute;VEIS

IsImob2=R CRUZ, SANTA, 1992 - CEP:96015-710 - BAIRRO CENTRO - PELOTAS/RS - FONE:3225.1100
IsImob3=93.301.976/0001-85

IsId1=CONDOM&Iacute;NIO : 00016-DUO NETO                     NRO.DOC:00016.AP 401.10/2017.N
IsId2=ENDERE&Ccedil;O   : R NETO, GENERAL, 532 - PELOTAS/RS
IsId3=COND&Ocirc;MINO  : ANTONIO R&Eacute;GIS IPP&Oacute;LITO-083.407.220/34        
IsId4=ECONOMIA   : AP 401
IsId5=COMPET&Ecirc;NCIA: 11/2017 (NORMAL)
IsVencto=05/11/2017
IsDetLin1=00029-GAS                01/01                                         15,09
IsDetLin2=00120-CONDOMINIO                                                      169,50
IsDetLin3=00121-AGUA                                                             48,35
IsDetLin4=00125-CONDOMINIO BOX                                                   36,50
IsDetLin5=00525-FUNDO RESERVA                                                    15,00
IsDetLin6=00122-DOC                                                               3,00
IsDetLin7=----------------------------------------------------------------------------
IsDetLin8=TOTAL                                                                 287,44
IsDetLin9=
IsDetLin10=
IsDetLin11=
IsDetLin12=
IsDetLin13=
IsDetLin14=
IsDetLin15=
IsDetLin16=
IsDetLin17=
IsDetLin18=
IsDetLin19=
IsDetLin20=
IsDetLin21=
IsDetLin22=
IsDetLin23=
IsDetLin24=
IsDetLin25=
IsDetLin26=
IsDetLin27=
IsDetLin28=
IsDetLin29=
IsDetLin30=
IsDetLin31=
IsDetLin32=
IsDetLin33=
IsDetLin34=
IsDetLin35=
IsDetLin36=
IsDetLin37=
IsDetLin38=
IsDetLin39=
IsDetLin40=
IsCodBanco=104-0
IsLinDig=10490.28044 61000.100844 10003.555975 5 73340000028744
IsLocalPagto=PREFERENCIALMENTE NAS CASAS LOTERICAS ATE O VALOR LIMITE
IsDataVenc=05/11/2017
IsNomeCedente=RAPHAEL IMOVEIS / CONDOMINIOS 93.301.976/0001-85
IsAgeCodCedente=1594/028046-1
IsDataDoc=26/10/2017
IsDataProc=26/10/2017
IsNumeroDoc=00016.AP 401.10/2017.N
IsNossoNumero=14/000008100035559-5
IsCarteira=RG
IsUsoBanco=
IsAceite=N
IsEspecieDoc=DM
IsMoeda=R$  
IsValorDoc=   287,44
IsOutroAcres=
IsDesconto=
IsOutraDed=
IsMoraMulta=
IsValorCobrado=
IsInstru1=PAG&Aacute;VEL NA REDE BANC&Aacute;RIA AT&Eacute; O VENCIMENTO, AP&Oacute;S O VENCIMENTO, SOMENTE NA        
IsInstru2=ADMINISTRADORA. 
IsInstru3=O PAGAMENTO DESTE DOC N&Atilde;O QUITA D&Eacute;BITOS ANTERIORES.
IsInstru4=&Eacute; EXPRESSAMENTE PROIBIDA A DEDU&Ccedil;&Atilde;O DE VALORES.
IsInstru5=
IsInstru6=
IsInstru7=
IsInstru8=
IsInstru9=
IsSacado1=ANTONIO R&Eacute;GIS IPP&Oacute;LITO                       Econ.:00016.AP 401(083.407.220-34)
IsSacado2=R NETO, GENERAL, 532 - AP 401
IsSacado3=96015-280  CENTRO - PELOTAS-RS
IsCodBarra1=10495733400000287440280461000100841000355597
IsCodBloco=UNC
