TIPO= L
CODPESSOA=310
IsTipoDoc=DOC DE LOCA&Ccedil;&Atilde;O
IsImob1=RAPHAEL  IM&Oacute;VEIS

IsImob2=R CRUZ, SANTA, 1992 - CEP:96015-710 - BAIRRO CENTRO - PELOTAS/RS - FONE:3225.1100
IsImob3=93.301.976/0001-85

IsId1=IM&Oacute;VEL     : 00001634                           NRO.DOC:00001634.01.08/2017.E
IsId2=ENDERE&Ccedil;O   : AV FERNANDO OSORIO, 1000 - PELOTAS/RS
IsId3=LOCAT&Aacute;RIO  : MARCELO OLIVEIRA MATIAS-834.415.060/49       
IsId4=COMPET&Ecirc;NCIA: 08/2017 (EXTRA)
IsId5=PROPRIET.  : 309-DARCI JOSE SIMOES PETER - CPF 218.948.090/68
IsVencto=20/10/2017
IsDetLin1=00064-IPTU               01/01 (CASA)                                 243,41
IsDetLin2=00121-AGUA                                                            196,23
IsDetLin3=00122-DOC                                                               4,00
IsDetLin4=----------------------------------------------------------------------------
IsDetLin5=TOTAL                                                                 443,64
IsDetLin6=VLR.MULTA+JUROS+CORRE&Ccedil;&Atilde;O                                               45,12
IsDetLin7=TOTAL C/MULTA+JUROS+CORRE&Ccedil;&Atilde;O                                          488,76
IsDetLin8=
IsDetLin9=
IsDetLin10=
IsDetLin11=
IsDetLin12=
IsDetLin13=
IsDetLin14=
IsDetLin15=
IsDetLin16=
IsDetLin17=
IsDetLin18=
IsDetLin19=
IsDetLin20=
IsDetLin21=
IsDetLin22=
IsDetLin23=
IsDetLin24=
IsDetLin25=
IsDetLin26=
IsDetLin27=
IsDetLin28=
IsDetLin29=
IsDetLin30=
IsDetLin31=
IsDetLin32=
IsDetLin33=
IsDetLin34=
IsDetLin35=
IsDetLin36=
IsDetLin37=
IsDetLin38=
IsDetLin39=
IsDetLin40=
IsCodBanco=104-0
IsLinDig=10497.85783 88000.100847 00003.533114 3 73250000048876
IsLocalPagto=PREF NAS CASAS LOTERICAS ATE O LIMITE
IsDataVenc=20/10/2017
IsNomeCedente=ADMINISTRADORA RAPHAEL LTDA.  CNPJ 93.301.976/0001-85
IsAgeCodCedente=1594/785788-8
IsDataDoc=26/10/2017
IsDataProc=26/10/2017
IsNumeroDoc=00001634.01.08/2017.E
IsNossoNumero=14/000008000035331-4
IsCarteira=RG
IsUsoBanco=
IsAceite=N
IsEspecieDoc=DM
IsMoeda=R$  
IsValorDoc=   488,76
IsOutroAcres=
IsDesconto=
IsOutraDed=
IsMoraMulta=
IsValorCobrado=
IsInstru1=PAG&Aacute;VEL NA REDE BANC&Aacute;RIA AT&Eacute; 27/10/2017.
IsInstru2=O PAGAMENTO DESTE DOC N&Atilde;O QUITA D&Eacute;BITOS ANTERIORES. 
IsInstru3=&Eacute; EXPRESSAMENTE PROIBIDA A DEDU&Ccedil;&Atilde;O DE VALORES.
IsInstru4=
IsInstru5=
IsInstru6=
IsInstru7=
IsInstru8=
IsInstru9=
IsSacado1=MARCELO OLIVEIRA MATIAS                      Imov.:1634(834.415.060-49)
IsSacado2=AV FERNANDO OSORIO, 1000
IsSacado3=96055-005  CENTRO - PELOTAS-RS
IsCodBarra1=10493732500000488767857888000100840000353311
