TIPO= L
CODPESSOA=3398
IsTipoDoc=DOC DE LOCA&Ccedil;&Atilde;O
IsImob1=RAPHAEL  IM&Oacute;VEIS

IsImob2=R CRUZ, SANTA, 1992 - CEP:96015-710 - BAIRRO CENTRO - PELOTAS/RS - FONE:3225.1100
IsImob3=93.301.976/0001-85

IsId1=IM&Oacute;VEL     : 00002957-BERTIOGA                  NRO.DOC:00002957.01.07/2017.E
IsId2=ENDERE&Ccedil;O   : R BARROSO, ALMIRANTE, 2327 - AP 407 - PELOTAS/RS
IsId3=LOCAT&Aacute;RIO  : MARINA SOUZA IUPPEN-031.414.990/20           
IsId4=COMPET&Ecirc;NCIA: 07/2017 (EXTRA)
IsId5=PROPRIET.  : 3441-DENISE OGLIARI PINTO - CPF 369.544.200/00
IsVencto=08/09/2017
IsDetLin1=00064-IPTU               01/01 (SINISTRO 22 DIAS)                      32,62
IsDetLin2=00120-CONDOMINIO               (SINISTRO 22 DIAS)                     164,40
IsDetLin3=02045-ALUGUEL PARC       01/01 (SINISTRO 22 DIAS)                     476,67
IsDetLin4=00122-DOC                                                               4,00
IsDetLin5=----------------------------------------------------------------------------
IsDetLin6=TOTAL                                                                 677,69
IsDetLin7=
IsDetLin8=
IsDetLin9=
IsDetLin10=
IsDetLin11=
IsDetLin12=
IsDetLin13=
IsDetLin14=
IsDetLin15=
IsDetLin16=
IsDetLin17=
IsDetLin18=
IsDetLin19=
IsDetLin20=
IsDetLin21=
IsDetLin22=
IsDetLin23=
IsDetLin24=
IsDetLin25=
IsDetLin26=
IsDetLin27=
IsDetLin28=
IsDetLin29=
IsDetLin30=
IsDetLin31=
IsDetLin32=
IsDetLin33=
IsDetLin34=
IsDetLin35=
IsDetLin36=
IsDetLin37=
IsDetLin38=
IsDetLin39=
IsDetLin40=
IsCodBanco=104-0
IsLinDig=
IsLocalPagto=PREF NAS CASAS LOTERICAS ATE O LIMITE
IsDataVenc=01/01/1900
IsNomeCedente=ADMINISTRADORA RAPHAEL LTDA.  CNPJ 93.301.976/0001-85
IsAgeCodCedente=1594/785788-8
IsDataDoc=08/10/2017
IsDataProc=08/10/2017
IsNumeroDoc=00002957.01.07/2017.E
IsNossoNumero=14/000008000032642-2
IsCarteira=RG
IsUsoBanco=
IsAceite=N
IsEspecieDoc=DM
IsMoeda=R$  
IsValorDoc=   677,69
IsOutroAcres=
IsDesconto=
IsOutraDed=
IsMoraMulta=
IsValorCobrado=
IsInstru1=PAG&Aacute;VEL NA REDE BANC&Aacute;RIA AT&Eacute; O VENCIMENTO, AP&Oacute;S SOMENTE NA ADMINISTRADORA
IsInstru2=AP&Oacute;S O DIA 20 DO M&Ecirc;S DO VENCIMENTO, SOMENTE NO JUR&Iacute;DICO, ACRESCIDO DE HONOR&Aacute;RIOS
IsInstru3=O PAGAMENTO DESTE DOC N&Atilde;O QUITA D&Eacute;BITOS ANTERIORES. 
IsInstru4=&Eacute; EXPRESSAMENTE PROIBIDA A DEDU&Ccedil;&Atilde;O DE VALORES.
IsInstru5=**AP&Oacute;S O VENCTO, CORRE&Ccedil;&Atilde;O MONET + JUROS:0,033%AD + MULTA DE 10%.
IsInstru6=
IsInstru7=
IsInstru8=
IsInstru9=
IsSacado1=MARINA SOUZA IUPPEN                          Imov.:2957(031.414.990-20)
IsSacado2=R BARROSO, ALMIRANTE, 2327 - 407
IsSacado3=96010-280  CENTRO - PELOTAS-RS
IsDebConta= DOC Quitado 
