TIPO= L
CODPESSOA=717
IsTipoDoc=DOC DE LOCA&Ccedil;&Atilde;O
IsImob1=RAPHAEL  IM&Oacute;VEIS

IsImob2=R CRUZ, SANTA, 1992 - CEP:96015-710 - BAIRRO CENTRO - PELOTAS/RS - FONE:3225.1100
IsImob3=93.301.976/0001-85

IsId1=IM&Oacute;VEL     : 00001270                           NRO.DOC:00001270.01.07/2017.N
IsId2=ENDERE&Ccedil;O   : R OSORIO, GENERAL, 555 - BOX 208
IsId3=LOCAT&Aacute;RIO  : JOAO FERNANDO PINTO DE VASCONC-540.144.170/34
IsId4=COMPET&Ecirc;NCIA: 07/2017 (NORMAL)
IsId5=PROPRIET.  : 24-R L CONSTRUCOES LTDA - CNPJ 94.560.802/0001-08
IsVencto=10/08/2017
IsDetLin1=00001-ALUGUEL                                                         182,57
IsDetLin2=00122-DOC                                                               4,00
IsDetLin3=----------------------------------------------------------------------------
IsDetLin4=TOTAL                                                                 186,57
IsDetLin5=
IsDetLin6=
IsDetLin7=
IsDetLin8=
IsDetLin9=
IsDetLin10=
IsDetLin11=
IsDetLin12=
IsDetLin13=
IsDetLin14=
IsDetLin15=
IsDetLin16=
IsDetLin17=
IsDetLin18=
IsDetLin19=
IsDetLin20=
IsDetLin21=
IsDetLin22=
IsDetLin23=
IsDetLin24=
IsDetLin25=
IsDetLin26=
IsDetLin27=
IsDetLin28=
IsDetLin29=
IsDetLin30=
IsDetLin31=
IsDetLin32=
IsDetLin33=
IsDetLin34=
IsDetLin35=
IsDetLin36=
IsDetLin37=
IsDetLin38=
IsDetLin39=
IsDetLin40=
IsCodBanco=104-0
IsLinDig=
IsLocalPagto=PREF NAS CASAS LOTERICAS ATE O LIMITE
IsDataVenc=10/08/2017
IsNomeCedente=ADMINISTRADORA RAPHAEL LTDA.  CNPJ 93.301.976/0001-85
IsAgeCodCedente=1594/785788-8
IsDataDoc=31/08/2017
IsDataProc=31/08/2017
IsNumeroDoc=00001270.01.07/2017.N
IsNossoNumero=14/000008000032085-8
IsCarteira=RG
IsUsoBanco=
IsAceite=N
IsEspecieDoc=DM
IsMoeda=R$  
IsValorDoc=   186,57
IsOutroAcres=
IsDesconto=
IsOutraDed=
IsMoraMulta=
IsValorCobrado=
IsInstru1=PAG&Aacute;VEL NA REDE BANC&Aacute;RIA AT&Eacute; O VENCIMENTO, AP&Oacute;S SOMENTE NA ADMINISTRADORA
IsInstru2=AP&Oacute;S O DIA 20 DO M&Ecirc;S DO VENCIMENTO, SOMENTE NO JUR&Iacute;DICO, ACRESCIDO DE HONOR&Aacute;RIOS
IsInstru3=O PAGAMENTO DESTE DOC N&Atilde;O QUITA D&Eacute;BITOS ANTERIORES. 
IsInstru4=&Eacute; EXPRESSAMENTE PROIBIDA A DEDU&Ccedil;&Atilde;O DE VALORES.
IsInstru5=**AP&Oacute;S O VENCTO, CORRE&Ccedil;&Atilde;O MONET + JUROS:0,033%AD + MULTA DE 10%.
IsInstru6=
IsInstru7=
IsInstru8=
IsInstru9=
IsSacado1=JOAO FERNANDO PINTO DE VASCONCELLOS          Imov.:1270(540.144.170-34)
IsSacado2=R OSORIO, GENERAL, 555 - BOX 208
IsSacado3=96020-000  CENTRO - PELOTAS-RS
IsDebConta= DOC Quitado 
