TIPO= L
CODPESSOA=4977
IsTipoDoc=DOC DE LOCA&Ccedil;&Atilde;O
IsImob1=RAPHAEL  IM&Oacute;VEIS

IsImob2=R CRUZ, SANTA, 1992 - CEP:96015-710 - BAIRRO CENTRO - PELOTAS/RS - FONE:3225.1100
IsImob3=93.301.976/0001-85

IsId1=IM&Oacute;VEL     : 00004742-GIOVANA                   NRO.DOC:00004742.01.10/2017.N
IsId2=ENDERE&Ccedil;O   : R DOM PEDRO II, 710 - AP 401 - BOX 01 - PELOTAS/RS
IsId3=LOCAT&Aacute;RIO  : MARIANE SALETE ALVES DOMINGUES-041.049.830/04
IsId4=COMPET&Ecirc;NCIA: 10/2017 (NORMAL)
IsId5=PROPRIET.  : 209-FABRICIO ZAMPROGNA MATTIELO - CPF 512.605.300/00
IsVencto=05/11/2017
IsDetLin1=00001-ALUGUEL                                                       1.000,00
IsDetLin2=00120-CONDOMINIO                                                      160,00
IsDetLin3=00206-DIF COND MES ANTER 01/01                                          3,00
IsDetLin4=00223-BONIFICA&Ccedil;&Atilde;O        01/01                                       -600,00
IsDetLin5=00122-DOC                                                               4,00
IsDetLin6=----------------------------------------------------------------------------
IsDetLin7=TOTAL                                                                 567,00
IsDetLin8=
IsDetLin9=
IsDetLin10=
IsDetLin11=
IsDetLin12=
IsDetLin13=
IsDetLin14=
IsDetLin15=
IsDetLin16=
IsDetLin17=
IsDetLin18=
IsDetLin19=
IsDetLin20=
IsDetLin21=
IsDetLin22=
IsDetLin23=
IsDetLin24=
IsDetLin25=
IsDetLin26=
IsDetLin27=
IsDetLin28=
IsDetLin29=
IsDetLin30=
IsDetLin31=
IsDetLin32=
IsDetLin33=
IsDetLin34=
IsDetLin35=
IsDetLin36=
IsDetLin37=
IsDetLin38=
IsDetLin39=
IsDetLin40=
IsCodBanco=104-0
IsLinDig=10497.85783 88000.100847 00003.577244 2 73340000056700
IsLocalPagto=PREF NAS CASAS LOTERICAS ATE O LIMITE
IsDataVenc=05/11/2017
IsNomeCedente=ADMINISTRADORA RAPHAEL LTDA.  CNPJ 93.301.976/0001-85
IsAgeCodCedente=1594/785788-8
IsDataDoc=26/10/2017
IsDataProc=26/10/2017
IsNumeroDoc=00004742.01.10/2017.N
IsNossoNumero=14/000008000035772-7
IsCarteira=RG
IsUsoBanco=
IsAceite=N
IsEspecieDoc=DM
IsMoeda=R$  
IsValorDoc=   567,00
IsOutroAcres=
IsDesconto=
IsOutraDed=
IsMoraMulta=
IsValorCobrado=
IsInstru1=PAG&Aacute;VEL NA REDE BANC&Aacute;RIA AT&Eacute; O VENCIMENTO, AP&Oacute;S SOMENTE NA ADMINISTRADORA
IsInstru2=AP&Oacute;S O DIA 20 DO M&Ecirc;S DO VENCIMENTO, SOMENTE NO JUR&Iacute;DICO, ACRESCIDO DE HONOR&Aacute;RIOS
IsInstru3=O PAGAMENTO DESTE DOC N&Atilde;O QUITA D&Eacute;BITOS ANTERIORES. 
IsInstru4=&Eacute; EXPRESSAMENTE PROIBIDA A DEDU&Ccedil;&Atilde;O DE VALORES.
IsInstru5=**AP&Oacute;S O VENCTO, CORRE&Ccedil;&Atilde;O MONET + JUROS:0,066%AD + MULTA DE 10%.
IsInstru6=
IsInstru7=
IsInstru8=
IsInstru9=
IsSacado1=MARIANE SALETE ALVES DOMINGUES               Imov.:4742(041.049.830-04)
IsSacado2=R DOM PEDRO II, 710 - 401
IsSacado3=96010-300  CENTRO - PELOTAS-RS
IsCodBarra1=10492733400000567007857888000100840000357724
