TIPO= L
CODPESSOA=3510
IsTipoDoc=DOC DE LOCA&Ccedil;&Atilde;O
IsImob1=RAPHAEL  IM&Oacute;VEIS

IsImob2=R CRUZ, SANTA, 1992 - CEP:96015-710 - BAIRRO CENTRO - PELOTAS/RS - FONE:3225.1100
IsImob3=93.301.976/0001-85

IsId1=IM&Oacute;VEL     : 00000523-CATHARINA                 NRO.DOC:00000523.02.09/2017.N
IsId2=ENDERE&Ccedil;O   : AV ZEFERINO COSTA, 212 - CASA 11 - PELOTAS/RS
IsId3=LOCAT&Aacute;RIO  : SHIMENE DE MORAES TEIXEIRA-017.940.630/21    
IsId4=COMPET&Ecirc;NCIA: 09/2017 (NORMAL)
IsId5=PROPRIET.  : 93-LMV INCORPORADORA E CONSTRUTORA LT - CNPJ 02.073.314/0001-40
IsVencto=10/10/2017
IsDetLin1=00001-ALUGUEL                  (14 dias)                              331,58
IsDetLin2=00120-CONDOMINIO               (14 dias)                               93,04
IsDetLin3=00207-FIAN&Ccedil;A             11/11                                        141,01
IsDetLin4=00122-DOC                                                               4,00
IsDetLin5=----------------------------------------------------------------------------
IsDetLin6=TOTAL                                                                 569,63
IsDetLin7=
IsDetLin8=
IsDetLin9=
IsDetLin10=
IsDetLin11=
IsDetLin12=
IsDetLin13=
IsDetLin14=
IsDetLin15=
IsDetLin16=
IsDetLin17=
IsDetLin18=
IsDetLin19=
IsDetLin20=
IsDetLin21=
IsDetLin22=
IsDetLin23=
IsDetLin24=
IsDetLin25=
IsDetLin26=
IsDetLin27=
IsDetLin28=
IsDetLin29=
IsDetLin30=
IsDetLin31=
IsDetLin32=
IsDetLin33=
IsDetLin34=
IsDetLin35=
IsDetLin36=
IsDetLin37=
IsDetLin38=
IsDetLin39=
IsDetLin40=
IsCodBanco=104-0
IsLinDig=
IsLocalPagto=PREF NAS CASAS LOTERICAS ATE O LIMITE
IsDataVenc=10/10/2017
IsNomeCedente=ADMINISTRADORA RAPHAEL LTDA.  CNPJ 93.301.976/0001-85
IsAgeCodCedente=1594/785788-8
IsDataDoc=26/10/2017
IsDataProc=26/10/2017
IsNumeroDoc=00000523.02.09/2017.N
IsNossoNumero=14/000008000034074-3
IsCarteira=RG
IsUsoBanco=
IsAceite=N
IsEspecieDoc=DM
IsMoeda=R$  
IsValorDoc=   569,63
IsOutroAcres=
IsDesconto=
IsOutraDed=
IsMoraMulta=
IsValorCobrado=
IsInstru1=PAG&Aacute;VEL NA REDE BANC&Aacute;RIA AT&Eacute; O VENCIMENTO, AP&Oacute;S SOMENTE NA ADMINISTRADORA
IsInstru2=AP&Oacute;S O DIA 20 DO M&Ecirc;S DO VENCIMENTO, SOMENTE NO JUR&Iacute;DICO, ACRESCIDO DE HONOR&Aacute;RIOS
IsInstru3=O PAGAMENTO DESTE DOC N&Atilde;O QUITA D&Eacute;BITOS ANTERIORES. 
IsInstru4=&Eacute; EXPRESSAMENTE PROIBIDA A DEDU&Ccedil;&Atilde;O DE VALORES.
IsInstru5=**AP&Oacute;S O VENCTO, CORRE&Ccedil;&Atilde;O MONET + JUROS:0,066%AD + MULTA DE 10%.
IsInstru6=
IsInstru7=
IsInstru8=
IsInstru9=
IsSacado1=SHIMENE DE MORAES TEIXEIRA                   Imov.:523(017.940.630-21)
IsSacado2=AV ZEFERINO COSTA, 212 - CASA 11
IsSacado3=96070-480  TRES VENDAS - PELOTAS-RS
IsDebConta= DOC Quitado 
