TIPO= C
CODPESSOA=137
IsTipoDoc=DOC DE CONDOM&Iacute;NIO
IsImob1=RAPHAEL  IM&Oacute;VEIS

IsImob2=R CRUZ, SANTA, 1992 - CEP:96015-710 - BAIRRO CENTRO - PELOTAS/RS - FONE:3225.1100
IsImob3=93.301.976/0001-85

IsId1=CONDOM&Iacute;NIO : 00007-PAINEIRAS                    NRO.DOC:00007.AP 303.10/2017.E
IsId2=ENDERE&Ccedil;O   : R TAMANDARE, ALMIRANTE, 640 - PELOTAS/RS
IsId3=COND&Ocirc;MINO  : ROBERTO CARLOS NUNES CORREA                  
IsId4=ECONOMIA   : AP 303
IsId5=COMPET&Ecirc;NCIA: 11/2017 (EXTRA)
IsVencto=10/11/2017
IsDetLin1=00602-CHAMADA  EXTRA     01/03 (Seguro)                                20,70
IsDetLin2=00122-DOC                                                               3,00
IsDetLin3=----------------------------------------------------------------------------
IsDetLin4=TOTAL                                                                  23,70
IsDetLin5=
IsDetLin6=
IsDetLin7=
IsDetLin8=
IsDetLin9=
IsDetLin10=
IsDetLin11=
IsDetLin12=
IsDetLin13=
IsDetLin14=
IsDetLin15=
IsDetLin16=
IsDetLin17=
IsDetLin18=
IsDetLin19=
IsDetLin20=
IsDetLin21=
IsDetLin22=
IsDetLin23=
IsDetLin24=
IsDetLin25=
IsDetLin26=
IsDetLin27=
IsDetLin28=
IsDetLin29=
IsDetLin30=
IsDetLin31=
IsDetLin32=
IsDetLin33=
IsDetLin34=
IsDetLin35=
IsDetLin36=
IsDetLin37=
IsDetLin38=
IsDetLin39=
IsDetLin40=
IsCodBanco=104-0
IsLinDig=10490.28044 61000.100844 10003.557401 5 73390000002370
IsLocalPagto=PREFERENCIALMENTE NAS CASAS LOTERICAS ATE O VALOR LIMITE
IsDataVenc=10/11/2017
IsNomeCedente=RAPHAEL IMOVEIS / CONDOMINIOS 93.301.976/0001-85
IsAgeCodCedente=1594/028046-1
IsDataDoc=26/10/2017
IsDataProc=26/10/2017
IsNumeroDoc=00007.AP 303.10/2017.E
IsNossoNumero=14/000008100035574-9
IsCarteira=RG
IsUsoBanco=
IsAceite=N
IsEspecieDoc=DM
IsMoeda=R$  
IsValorDoc=    23,70
IsOutroAcres=
IsDesconto=
IsOutraDed=
IsMoraMulta=
IsValorCobrado=
IsInstru1=PAG&Aacute;VEL NA REDE BANC&Aacute;RIA AT&Eacute; O VENCIMENTO, AP&Oacute;S O VENCIMENTO, SOMENTE NA        
IsInstru2=ADMINISTRADORA. 
IsInstru3=O PAGAMENTO DESTE DOC N&Atilde;O QUITA D&Eacute;BITOS ANTERIORES.
IsInstru4=&Eacute; EXPRESSAMENTE PROIBIDA A DEDU&Ccedil;&Atilde;O DE VALORES.
IsInstru5=
IsInstru6=
IsInstru7=
IsInstru8=
IsInstru9=
IsSacado1=ROBERTO CARLOS NUNES CORREA                  Econ.:00007.AP 303
IsSacado2=R TAMANDARE, ALMIRANTE, 640 - AP 303
IsSacado3=96010-750  CENTRO - PELOTAS-RS
IsCodBarra1=10495733900000023700280461000100841000355740
IsCodBloco=UNC
