TIPO= C
CODPESSOA=105
IsTipoDoc=DOC DE CONDOM&Iacute;NIO
IsImob1=RAPHAEL  IM&Oacute;VEIS

IsImob2=R CRUZ, SANTA, 1992 - CEP:96015-710 - BAIRRO CENTRO - PELOTAS/RS - FONE:3225.1100
IsImob3=93.301.976/0001-85

IsId1=CONDOM&Iacute;NIO : 00002-DOM AUGUSTO                  NRO.DOC:00002.AP 402.10/2017.N
IsId2=ENDERE&Ccedil;O   : R FELIX DA CUNHA, 953 - PELOTAS/RS
IsId3=COND&Ocirc;MINO  : HORACI MOTA-065.467.140/00                   
IsId4=ECONOMIA   : AP 402
IsId5=COMPET&Ecirc;NCIA: 11/2017 (NORMAL)
IsVencto=05/11/2017
IsDetLin1=00120-CONDOMINIO                                                      165,45
IsDetLin2=00121-AGUA                                                             61,90
IsDetLin3=00525-FUNDO RESERVA                                                    10,00
IsDetLin4=00122-DOC                                                               3,00
IsDetLin5=----------------------------------------------------------------------------
IsDetLin6=TOTAL                                                                 240,35
IsDetLin7=
IsDetLin8=
IsDetLin9=
IsDetLin10=
IsDetLin11=
IsDetLin12=
IsDetLin13=
IsDetLin14=
IsDetLin15=
IsDetLin16=
IsDetLin17=
IsDetLin18=
IsDetLin19=
IsDetLin20=
IsDetLin21=
IsDetLin22=
IsDetLin23=
IsDetLin24=
IsDetLin25=
IsDetLin26=
IsDetLin27=
IsDetLin28=
IsDetLin29=
IsDetLin30=
IsDetLin31=
IsDetLin32=
IsDetLin33=
IsDetLin34=
IsDetLin35=
IsDetLin36=
IsDetLin37=
IsDetLin38=
IsDetLin39=
IsDetLin40=
IsCodBanco=104-0
IsLinDig=10490.28044 61000.100844 10003.539938 1 73340000024035
IsLocalPagto=PREFERENCIALMENTE NAS CASAS LOTERICAS ATE O VALOR LIMITE
IsDataVenc=05/11/2017
IsNomeCedente=RAPHAEL IMOVEIS / CONDOMINIOS 93.301.976/0001-85
IsAgeCodCedente=1594/028046-1
IsDataDoc=26/10/2017
IsDataProc=26/10/2017
IsNumeroDoc=00002.AP 402.10/2017.N
IsNossoNumero=14/000008100035399-1
IsCarteira=RG
IsUsoBanco=
IsAceite=N
IsEspecieDoc=DM
IsMoeda=R$  
IsValorDoc=   240,35
IsOutroAcres=
IsDesconto=
IsOutraDed=
IsMoraMulta=
IsValorCobrado=
IsInstru1=PAG&Aacute;VEL NA REDE BANC&Aacute;RIA AT&Eacute; O VENCIMENTO, AP&Oacute;S O VENCIMENTO, SOMENTE NA        
IsInstru2=ADMINISTRADORA. 
IsInstru3=O PAGAMENTO DESTE DOC N&Atilde;O QUITA D&Eacute;BITOS ANTERIORES.
IsInstru4=&Eacute; EXPRESSAMENTE PROIBIDA A DEDU&Ccedil;&Atilde;O DE VALORES.
IsInstru5=
IsInstru6=
IsInstru7=
IsInstru8=
IsInstru9=
IsSacado1=HORACI MOTA                                  Econ.:00002.AP 402(065.467.140-00)
IsSacado2=R GONCALVES CHAVES, 762 - Fuhro Souto
IsSacado3=96015-560  CENTRO - PELOTAS-RS
IsCodBarra1=10491733400000240350280461000100841000353993
IsCodBloco=UNC
