HE;1;Resumo de Receita e Despesa;9;SCHULZ;29/09/2015
TI;1;;09/2014;10/2014;11/2014;12/2014;01/2015;02/2015;03/2015;04/2015;05/2015;06/2015;07/2015;08/2015;Total;%;MEDIA
TD;1;Resumo de Despesas;;;;;;;;;;;;;;;
DD;0;;0;0;0;0;0;0;0;0;0;0;0;0;-;776;-n,an
TE;1;Total;0;0;0;0;0;0;0;0;0;0;0;0;0;100;0
TR;1;Resumo de Receitas;;;;;;;;;;;;;;;
DR;0;TAXAS SEM PLANO DE CONTAS ASSOCIADA;0;0;0;0;0;0;0;0;0;0;0;0;0;776;-n,an
TT;1;Total;0;0;0;0;0;0;0;0;0;0;0;0;0;100;0
RS;1;Demonstrativos de Saldos;;;;;;;;;;;;;;;
SB;0;;0;0;0;0;0;0;0;0;0;0;0;0;0;0;0
FS;1;Total;0;0;0;0;0;0;0;0;0;0;0;0;0;100;0
FF;1;Total;0;0;0;0;0;0;0;0;0;0;0;0;0;100;0
