TIPO= C
CODPESSOA=203
IsTipoDoc=DOC DE CONDOM&Iacute;NIO
IsImob1=RAPHAEL  IM&Oacute;VEIS

IsImob2=R CRUZ, SANTA, 1992 - CEP:96015-710 - BAIRRO CENTRO - PELOTAS/RS - FONE:3225.1100
IsImob3=93.301.976/0001-85

IsId1=CONDOM&Iacute;NIO : 00012-VOLPI                        NRO.DOC:00012.AP 404.10/2017.N
IsId2=ENDERE&Ccedil;O   : R GONCALVES CHAVES, 364 - PELOTAS/RS
IsId3=COND&Ocirc;MINO  : MARIA TEREZA DA SILVA PEIXOTO-457.124.410/04 
IsId4=ECONOMIA   : AP 404
IsId5=COMPET&Ecirc;NCIA: 11/2017 (NORMAL)
IsVencto=05/11/2017
IsDetLin1=00120-CONDOMINIO                                                      118,50
IsDetLin2=00121-AGUA                                                             66,27
IsDetLin3=00602-CHAMADA  EXTRA     08/08 (Area e interfone)                      50,00
IsDetLin4=00122-DOC                                                               3,00
IsDetLin5=----------------------------------------------------------------------------
IsDetLin6=TOTAL                                                                 237,77
IsDetLin7=
IsDetLin8=
IsDetLin9=
IsDetLin10=
IsDetLin11=
IsDetLin12=
IsDetLin13=
IsDetLin14=
IsDetLin15=
IsDetLin16=
IsDetLin17=
IsDetLin18=
IsDetLin19=
IsDetLin20=
IsDetLin21=
IsDetLin22=
IsDetLin23=
IsDetLin24=
IsDetLin25=
IsDetLin26=
IsDetLin27=
IsDetLin28=
IsDetLin29=
IsDetLin30=
IsDetLin31=
IsDetLin32=
IsDetLin33=
IsDetLin34=
IsDetLin35=
IsDetLin36=
IsDetLin37=
IsDetLin38=
IsDetLin39=
IsDetLin40=
IsCodBanco=104-0
IsLinDig=10490.28044 61000.100844 10003.550315 9 73340000023777
IsLocalPagto=PREFERENCIALMENTE NAS CASAS LOTERICAS ATE O VALOR LIMITE
IsDataVenc=05/11/2017
IsNomeCedente=RAPHAEL IMOVEIS / CONDOMINIOS 93.301.976/0001-85
IsAgeCodCedente=1594/028046-1
IsDataDoc=26/10/2017
IsDataProc=26/10/2017
IsNumeroDoc=00012.AP 404.10/2017.N
IsNossoNumero=14/000008100035503-0
IsCarteira=RG
IsUsoBanco=
IsAceite=N
IsEspecieDoc=DM
IsMoeda=R$  
IsValorDoc=   237,77
IsOutroAcres=
IsDesconto=
IsOutraDed=
IsMoraMulta=
IsValorCobrado=
IsInstru1=PAG&Aacute;VEL NA REDE BANC&Aacute;RIA AT&Eacute; O VENCIMENTO, AP&Oacute;S O VENCIMENTO, SOMENTE NA        
IsInstru2=ADMINISTRADORA. 
IsInstru3=O PAGAMENTO DESTE DOC N&Atilde;O QUITA D&Eacute;BITOS ANTERIORES.
IsInstru4=&Eacute; EXPRESSAMENTE PROIBIDA A DEDU&Ccedil;&Atilde;O DE VALORES.
IsInstru5=
IsInstru6=
IsInstru7=
IsInstru8=
IsInstru9=
IsSacado1=MARIA TEREZA DA SILVA PEIXOTO                Econ.:00012.AP 404(457.124.410-04)
IsSacado2=R FELIX DA CUNHA, 656 - CASAR&Atilde;O IMOVEIS
IsSacado3=96010-000  CENTRO - PELOTAS-RS
IsCodBarra1=10499733400000237770280461000100841000355031
IsCodBloco=UNC
