TIPO= C
CODPESSOA=104
IsTipoDoc=DOC DE CONDOM&Iacute;NIO
IsImob1=RAPHAEL  IM&Oacute;VEIS

IsImob2=R CRUZ, SANTA, 1992 - CEP:96015-710 - BAIRRO CENTRO - PELOTAS/RS - FONE:3225.1100
IsImob3=93.301.976/0001-85

IsId1=CONDOM&Iacute;NIO : 00002-DOM AUGUSTO                  NRO.DOC:00002.AP 301.09/2017.N
IsId2=ENDERE&Ccedil;O   : R FELIX DA CUNHA, 953 - PELOTAS/RS
IsId3=COND&Ocirc;MINO  : ZONA SUL CONSTUTORA LTDA-02.551.276/0001-93  
IsId4=ECONOMIA   : AP 301
IsId5=COMPET&Ecirc;NCIA: 10/2017 (NORMAL)
IsVencto=05/10/2017
IsDetLin1=00120-CONDOMINIO                                                      165,45
IsDetLin2=00121-AGUA                                                             80,15
IsDetLin3=00525-FUNDO RESERVA                                                    10,00
IsDetLin4=00122-DOC                                                               3,00
IsDetLin5=----------------------------------------------------------------------------
IsDetLin6=TOTAL                                                                 258,60
IsDetLin7=
IsDetLin8=
IsDetLin9=
IsDetLin10=
IsDetLin11=
IsDetLin12=
IsDetLin13=
IsDetLin14=
IsDetLin15=
IsDetLin16=
IsDetLin17=
IsDetLin18=
IsDetLin19=
IsDetLin20=
IsDetLin21=
IsDetLin22=
IsDetLin23=
IsDetLin24=
IsDetLin25=
IsDetLin26=
IsDetLin27=
IsDetLin28=
IsDetLin29=
IsDetLin30=
IsDetLin31=
IsDetLin32=
IsDetLin33=
IsDetLin34=
IsDetLin35=
IsDetLin36=
IsDetLin37=
IsDetLin38=
IsDetLin39=
IsDetLin40=
IsCodBanco=104-0
IsLinDig=
IsLocalPagto=PREFERENCIALMENTE NAS CASAS LOTERICAS ATE O VALOR LIMITE
IsDataVenc=05/10/2017
IsNomeCedente=RAPHAEL IMOVEIS / CONDOMINIOS 93.301.976/0001-85
IsAgeCodCedente=1594/028046-1
IsDataDoc=22/10/2017
IsDataProc=22/10/2017
IsNumeroDoc=00002.AP 301.09/2017.N
IsNossoNumero=14/000008100034150-0
IsCarteira=RG
IsUsoBanco=
IsAceite=N
IsEspecieDoc=DM
IsMoeda=R$  
IsValorDoc=   258,60
IsOutroAcres=
IsDesconto=
IsOutraDed=     3,00
IsMoraMulta=
IsValorCobrado=
IsInstru1=PAG&Aacute;VEL NA REDE BANC&Aacute;RIA AT&Eacute; O VENCIMENTO, AP&Oacute;S O VENCIMENTO, SOMENTE NA        
IsInstru2=ADMINISTRADORA. 
IsInstru3=O PAGAMENTO DESTE DOC N&Atilde;O QUITA D&Eacute;BITOS ANTERIORES.
IsInstru4=&Eacute; EXPRESSAMENTE PROIBIDA A DEDU&Ccedil;&Atilde;O DE VALORES.
IsInstru5=
IsInstru6=
IsInstru7=
IsInstru8=
IsInstru9=
IsSacado1=ZONA SUL CONSTUTORA LTDA                     Econ.:00002.AP 301(02.551.276/0001-93)
IsSacado2=R CRUZ, SANTA, 1992
IsSacado3=96015-710  CENTRO - PELOTAS-RS
IsDebConta= DOC Quitado 
IsCodBloco=UNC
