TIPO= L
CODPESSOA=3771
IsTipoDoc=DOC DE LOCA&Ccedil;&Atilde;O
IsImob1=COBRAN&Ccedil;A ADMINISTRATIVA

IsImob2=R SANTA CRUZ, 1992 - FONE: 3225.1100
IsImob3=00.000.000/0000-00

IsId1=IM&Oacute;VEL     : 00003382                           NRO.DOC:00003382.03.07/2017.E
IsId2=ENDERE&Ccedil;O   : R ANCHIETA, 1612 - AP 401
IsId3=LOCAT&Aacute;RIO  : IOLANDA FIGUEIREDO GON&Ccedil;ALVES (-502.783.556/68
IsId4=COMPET&Ecirc;NCIA: 07/2017 (EXTRA)
IsId5=PROPRIET.  : 3901-KAREN NUNES MONTES DOCA - CPF 002.254.020/25
IsVencto=01/01/1900
IsRetido=S
IsDetLin1=00554-CUSTAS JUDICIAIS   01/01                                        533,10
IsDetLin2=02021-HONORARIOS ADV     01/01                                      1.301,10
IsDetLin3=02082-ACORDO PROC JUDIC  01/01 (02/2017 A 07/2017)                 13.011,00
IsDetLin4=00122-DOC                                                               4,00
IsDetLin5=----------------------------------------------------------------------------
IsDetLin6=TOTAL                                                              14.849,20
IsDetLin7=VLR.MULTA+JUROS+CORRE&Ccedil;&Atilde;O                                            1.874,50
IsDetLin8=TOTAL C/MULTA+JUROS+CORRE&Ccedil;&Atilde;O                                       16.723,70
IsDetLin9=
IsDetLin10=
IsDetLin11=
IsDetLin12=
IsDetLin13=
IsDetLin14=
IsDetLin15=
IsDetLin16=
IsDetLin17=
IsDetLin18=
IsDetLin19=
IsDetLin20=
IsDetLin21=
IsDetLin22=
IsDetLin23=
IsDetLin24=
IsDetLin25=
IsDetLin26=
IsDetLin27=
IsDetLin28=
IsDetLin29=
IsDetLin30=
IsDetLin31=
IsDetLin32=
IsDetLin33=
IsDetLin34=
IsDetLin35=
IsDetLin36=
IsDetLin37=
IsDetLin38=
IsDetLin39=
IsDetLin40=
IsCodBanco=104-0
IsLinDig=10497.85783 88000.100847 00003.235603 4 72720001672370
IsLocalPagto=PREF NAS CASAS LOTERICAS ATE O LIMITE
IsDataVenc=01/01/1900
IsNomeCedente=ADMINISTRADORA RAPHAEL LTDA.  CNPJ 93.301.976/0001-85 / COBRAN&Ccedil;A ADMINISTRATIVA
IsAgeCodCedente=1594/785788-8
IsDataDoc=03/09/2017
IsDataProc=03/09/2017
IsNumeroDoc=00003382.03.07/2017.E
IsNossoNumero=14/000008000032356-3
IsCarteira=RG
IsUsoBanco=
IsAceite=N
IsEspecieDoc=DM
IsMoeda=R$  
IsValorDoc= 16.723,70
IsOutroAcres=
IsDesconto=
IsOutraDed=
IsMoraMulta=
IsValorCobrado=
IsInstru1=PAG&Aacute;VEL NA REDE BANC&Aacute;RIA AT&Eacute; 04/09/2017.
IsInstru2=O PAGAMENTO DESTE DOC N&Atilde;O QUITA D&Eacute;BITOS ANTERIORES. 
IsInstru3=&Eacute; EXPRESSAMENTE PROIBIDA A DEDU&Ccedil;&Atilde;O DE VALORES.
IsInstru4=
IsInstru5=
IsInstru6=
IsInstru7=
IsInstru8=
IsInstru9=
IsSacado1=IOLANDA FIGUEIREDO GON&Ccedil;ALVES (FIADORA)       Imov.:3382(502.783.556-68)
IsSacado2=R DR ANTONIO CARLOS, 637
IsSacado3=37470-000  SAO LOURENCO VELHO - SAO LOURENCO-MG
IsCodBarra1=10494727200016723707857888000100840000323560
