TIPO= L
CODPESSOA=4
IsTipoDoc=DOC DE LOCA&Ccedil;&Atilde;O
IsImob1=RAPHAEL  IM&Oacute;VEIS

IsImob2=R CRUZ, SANTA, 1992 - CEP:96015-710 - BAIRRO CENTRO - PELOTAS/RS - FONE:3225.1100
IsImob3=93.301.976/0001-85

IsId1=IM&Oacute;VEL     : 00000001-HELENA VERA               NRO.DOC:00000001.01.04/2017.E
IsId2=ENDERE&Ccedil;O   : R DEODORO, MARECHAL, 547 - AP 302 - PELOTAS/RS
IsId3=LOCAT&Aacute;RIO  : CARMEM ELAINE MENESES MIRAPALH-508.186.860/49
IsId4=COMPET&Ecirc;NCIA: 04/2017 (EXTRA)
IsId5=PROPRIET.  : 3-ADAO JESUS DE BRITTO - CPF 259.691.370/49
IsVencto=01/01/1900
IsRetido=S
IsDetLin1=02069-AMORTIZACAO ALUGUE 01/01                                      2.000,00
IsDetLin2=00122-DOC                                                               4,00
IsDetLin3=----------------------------------------------------------------------------
IsDetLin4=TOTAL                                                               2.004,00
IsDetLin5=VLR.MULTA+JUROS+CORRE&Ccedil;&Atilde;O                                              235,11
IsDetLin6=TOTAL C/MULTA+JUROS+CORRE&Ccedil;&Atilde;O                                        2.239,11
IsDetLin7=
IsDetLin8=
IsDetLin9=
IsDetLin10=
IsDetLin11=
IsDetLin12=
IsDetLin13=
IsDetLin14=
IsDetLin15=
IsDetLin16=
IsDetLin17=
IsDetLin18=
IsDetLin19=
IsDetLin20=
IsDetLin21=
IsDetLin22=
IsDetLin23=
IsDetLin24=
IsDetLin25=
IsDetLin26=
IsDetLin27=
IsDetLin28=
IsDetLin29=
IsDetLin30=
IsDetLin31=
IsDetLin32=
IsDetLin33=
IsDetLin34=
IsDetLin35=
IsDetLin36=
IsDetLin37=
IsDetLin38=
IsDetLin39=
IsDetLin40=
IsCodBanco=104-0
IsLinDig=10497.85783 88000.100847 00003.513439 7 73250000223911
IsLocalPagto=PREF NAS CASAS LOTERICAS ATE O LIMITE
IsDataVenc=01/01/1900
IsNomeCedente=ADMINISTRADORA RAPHAEL LTDA.  CNPJ 93.301.976/0001-85
IsAgeCodCedente=1594/785788-8
IsDataDoc=26/10/2017
IsDataProc=26/10/2017
IsNumeroDoc=00000001.01.04/2017.E
IsNossoNumero=14/000008000035134-6
IsCarteira=RG
IsUsoBanco=
IsAceite=N
IsEspecieDoc=DM
IsMoeda=R$  
IsValorDoc=  2.239,11
IsOutroAcres=
IsDesconto=
IsOutraDed=
IsMoraMulta=
IsValorCobrado=
IsInstru1=PAG&Aacute;VEL NA REDE BANC&Aacute;RIA AT&Eacute; 27/10/2017.
IsInstru2=O PAGAMENTO DESTE DOC N&Atilde;O QUITA D&Eacute;BITOS ANTERIORES. 
IsInstru3=&Eacute; EXPRESSAMENTE PROIBIDA A DEDU&Ccedil;&Atilde;O DE VALORES.
IsInstru4=
IsInstru5=
IsInstru6=
IsInstru7=
IsInstru8=
IsInstru9=
IsSacado1=CARMEM ELAINE MENESES MIRAPALHETA            Imov.:1(508.186.860-49)
IsSacado2=R DEODORO, MARECHAL, 547 - 302
IsSacado3=96020-220  CENTRO - PELOTAS-RS
IsCodBarra1=10497732500002239117857888000100840000351343
