TIPO= L
CODPESSOA=800
IsTipoDoc=DOC DE LOCA&Ccedil;&Atilde;O
IsImob1=RAPHAEL  IM&Oacute;VEIS

IsImob2=R CRUZ, SANTA, 1992 - CEP:96015-710 - BAIRRO CENTRO - PELOTAS/RS - FONE:3225.1100
IsImob3=93.301.976/0001-85

IsId1=IM&Oacute;VEL     : 00000323-ANCHIETA                  NRO.DOC:00000323.01.08/2017.N
IsId2=ENDERE&Ccedil;O   : R ANCHIETA, 1353 - AP 203 - PELOTAS/RS
IsId3=LOCAT&Aacute;RIO  : PAULA DA COSTA CORREA CANIZARE-018.450.560/78
IsId4=COMPET&Ecirc;NCIA: 08/2017 (NORMAL)
IsId5=PROPRIET.  : 799-IDALISA TIMM - CPF 301.973.250/68
IsVencto=10/09/2017
IsDetLin1=00001-ALUGUEL                                                         992,56
IsDetLin2=00064-IPTU               08/10                                         66,46
IsDetLin3=00120-CONDOMINIO                                                      187,38
IsDetLin4=00122-DOC                                                               4,00
IsDetLin5=----------------------------------------------------------------------------
IsDetLin6=TOTAL                                                               1.250,40
IsDetLin7=
IsDetLin8=
IsDetLin9=
IsDetLin10=
IsDetLin11=
IsDetLin12=
IsDetLin13=
IsDetLin14=
IsDetLin15=
IsDetLin16=
IsDetLin17=
IsDetLin18=
IsDetLin19=
IsDetLin20=
IsDetLin21=
IsDetLin22=
IsDetLin23=
IsDetLin24=
IsDetLin25=
IsDetLin26=
IsDetLin27=
IsDetLin28=
IsDetLin29=
IsDetLin30=
IsDetLin31=
IsDetLin32=
IsDetLin33=
IsDetLin34=
IsDetLin35=
IsDetLin36=
IsDetLin37=
IsDetLin38=
IsDetLin39=
IsDetLin40=
IsCodBanco=104-0
IsLinDig=
IsLocalPagto=PREF NAS CASAS LOTERICAS ATE O LIMITE
IsDataVenc=10/09/2017
IsNomeCedente=ADMINISTRADORA RAPHAEL LTDA.  CNPJ 93.301.976/0001-85
IsAgeCodCedente=1594/785788-8
IsDataDoc=30/09/2017
IsDataProc=30/09/2017
IsNumeroDoc=00000323.01.08/2017.N
IsNossoNumero=14/000008000033102-7
IsCarteira=RG
IsUsoBanco=
IsAceite=N
IsEspecieDoc=DM
IsMoeda=R$  
IsValorDoc=  1.250,40
IsOutroAcres=
IsDesconto=
IsOutraDed=
IsMoraMulta=
IsValorCobrado=
IsInstru1=PAG&Aacute;VEL NA REDE BANC&Aacute;RIA AT&Eacute; O VENCIMENTO, AP&Oacute;S SOMENTE NA ADMINISTRADORA
IsInstru2=AP&Oacute;S O DIA 20 DO M&Ecirc;S DO VENCIMENTO, SOMENTE NO JUR&Iacute;DICO, ACRESCIDO DE HONOR&Aacute;RIOS
IsInstru3=O PAGAMENTO DESTE DOC N&Atilde;O QUITA D&Eacute;BITOS ANTERIORES. 
IsInstru4=&Eacute; EXPRESSAMENTE PROIBIDA A DEDU&Ccedil;&Atilde;O DE VALORES.
IsInstru5=**AP&Oacute;S O VENCTO, CORRE&Ccedil;&Atilde;O MONET + JUROS:0,033%AD + MULTA DE 10%.
IsInstru6=
IsInstru7=
IsInstru8=
IsInstru9=
IsSacado1=PAULA DA COSTA CORREA CANIZARES              Imov.:323(018.450.560-78)
IsSacado2=R ANCHIETA, 1353 - 203
IsSacado3=96015-420  CENTRO - PELOTAS-RS
IsDebConta= DOC Quitado 
